{
  "uuid": "game-server-uuid",
  "type": "cactuscon-game-server",
  "discoverWhitelist": [],
  "configureWhitelist": [],
  "receiveWhitelist": ["*"],
  "sendWhitelist": ["*"],
  "token": "$2a$10$SNwbidQ9LRL.m2Z0zgbJjOyu/BGNImM4.hll4AghE/ZbOISg3xBUG"
}
